<?xml version="1.0" encoding="utf-8"?>
<!DOCTYPE svg PUBLIC "-//W3C//DTD SVG 1.1//EN" "http://www.w3.org/Graphics/SVG/1.1/DTD/svg11.dtd">
<svg version="1.1" xmlns="http://www.w3.org/2000/svg" xmlns:xlink="http://www.w3.org/1999/xlink" x="0px" y="0px"
	 width="16px" height="12px" xml:space="preserve">
<polygon opacity="0.5" fill="#FFFFFF" points="6.1,12.201 0,6.101 6.1,0 7,0.9 1.801,6.101 7,11.301"/>
</svg>
