<?xml version="1.0" encoding="utf-8"?>
<!DOCTYPE svg PUBLIC "-//W3C//DTD SVG 1.1//EN" "http://www.w3.org/Graphics/SVG/1.1/DTD/svg11.dtd">
<svg version="1.1" xmlns="http://www.w3.org/2000/svg" xmlns:xlink="http://www.w3.org/1999/xlink" x="0px" y="0px"
	 width="16px" height="12px" xml:space="preserve">
<polygon fill="#000000" opacity="0.2" points="0,11.301 5.199,6.101 0,0.9 0.9,0 7,6.101 0.9,12.201 "/>
</svg>
