<?xml version="1.0" encoding="utf-8"?>
<!DOCTYPE svg PUBLIC "-//W3C//DTD SVG 1.1//EN" "http://www.w3.org/Graphics/SVG/1.1/DTD/svg11.dtd">
<svg version="1.1" xmlns="http://www.w3.org/2000/svg" xmlns:xlink="http://www.w3.org/1999/xlink" x="0px" y="0px"
	 width="16px" height="12px" xml:space="preserve">
<rect y="1.5" fill="#000000" opacity="0.8" width="10" height="1.5"/>
<rect y="5.5" fill="#000000" opacity="0.8" width="10" height="1.5"/>
<rect y="9.5" fill="#000000" opacity="0.8" width="10" height="1.5"/>
</svg>
